module bitbucket.org/olympiaschooldistrict/secrets

go 1.15

require (
	cloud.google.com/go v0.74.0
	golang.org/x/crypto v0.0.0-20201221181555-eec23a3978ad // indirect
	golang.org/x/net v0.0.0-20201224014010-6772e930b67b // indirect
	golang.org/x/sys v0.0.0-20201223074533-0d417f636930 // indirect
	google.golang.org/genproto v0.0.0-20201214200347-8c77b98c765d
)
